MÃ©dailles Jeux Olympiques d’hiver de 1924 Ã 2010
…
Ainsi, 42 nations ont gagné des médailles entre 1924 et 2010. Nous avons remarqué qu’en comptant par nom de pays (‘country’) plutôt que par le code (‘code’), nous obtenions plus de résultats. Cela s’explique par le fait que certains pays ont changé de nom au cours du temps, comme l’Allemagne : le code est resté’GER’ alors que le nom est passé de ‘Federal Republic of Germany (1950-1990)’ et ‘German Democratic Republic (1955-1990)’ à ‘Germany’. Il nous ait paru plus cohérent de travailler avec le code des pays.

Maintenant que nous avons présenté les données, nous allons les analyser selon une certaine ligne de reflexion. Dans un premier temps, nous allons essayer de trouver les pays qui ont gagné le plus (et réciproquement le moins) de médailles sur l’ensemble de ces jeux, puis par année de Jo et enfin par sport. Ensuite, nous allons regarder si ce sont toujours les mêmes pays qui restent “au sommet” ou si, au cours des années, de nouveaux pays “compétitifs” ont émergé. Enfin, dans une dernière partie qui résulte surtout de notre curiostité, nous étudierons le cas de la France.

2 Quel pays gagne le plus/ le moins ?

Nous allons maintenant regarder la répartition du nombre de médailles gagnées par pays sur l’ensembles de JO.

2.1 Peu importe la couleur de la médaille

On va donc compter le nombre de médaille par pays (nous raisonnons toujours sur le code) sur les 86 ans de données que nous possédons.

donnees%>%group_by(code)%>%summarise(N=n())

## # A tibble: 42 × 2
##     code     N
##    <chr> <int>
## 1    AUS     9
## 2    AUT   201
## 3    BEL     5
## 4    BLR     9
## 5    BUL     6
## 6    CAN   146
## 7    CHN    44
## 8    CRO    10
## 9    CZE    16
## 10   DEN     1
## # ... with 32 more rows
…
Cette fois nous ne pouvons pas faire la même méthode car un pays a été remplace : la France a plus gagné de médaille que l’Italie ce qui l’a fait sortir du top 10. L’Autriche a également fait sa place au détriment des Etats Unis

Ainsi, on peut dire que le top 10 des nations qui gagnent le plus de médailles en général, d’or, d’argent ou de bronze reste constant mis à part l’Italie et la France qui échangent la place numéro 10. Nous allons maintenant regarder pour chaque JO, quels ont été les pays qui ont le plus gagné.

3 Analyse par Jeux Olympiques

Dans cette partie, nous avons choisi de ne conserver que les trois nations qui ont gagné le plus de médailles par année de JO.

yearCode<-donnees%>%group_by(year,code)%>%summarise(N=n())%>%arrange(-N)%>%slice(1:3)
yearCode

## Source: local data frame [63 x 3]
## Groups: year [21]
## 
##     year  code     N
##    <int> <chr> <int>
## 1   1924   NOR    16
## 2   1924   FIN    11
## 3   1924   GBR     4
## 4   1928   NOR    14
## 5   1928   USA     6
## 6   1928   SWE     5
## 7   1932   USA    12
## 8   1932   NOR    10
## 9   1932   CAN     7
## 10  1936   NOR    15
## # ... with 53 more rows

4 Analyse par sport

Peu importe la couleur de la mÃ©daille

donnees%>%group_by(sport,code)%>%summarise(N=n())%>%arrange(-N)%>%slice(1:3)

## Source: local data frame [45 x 3]
## Groups: sport [15]
## 
##           sport  code     N
##           <chr> <chr> <int>
## 1  alpineskiing   AUT   105
## 2  alpineskiing   SUI    55
## 3  alpineskiing   FRA    43
## 4      biathlon   GER    59
## 5      biathlon   NOR    29
## 6      biathlon   RUS    20
## 7     bobsleigh   GER    40
## 8     bobsleigh   SUI    30
## 9     bobsleigh   USA    20
## 10 crosscountry   NOR    96
## # ... with 35 more rows
…
donnees%>%group_by(year,sport,code)%>%summarise(N=n())%>%arrange(-N)%>%slice(1)%>%filter(code=='FRA')

## Source: local data frame [4 x 4]
## Groups: year, sport [4]
## 
##    year           sport  code     N
##   <int>           <chr> <chr> <int>
## 1  1924         curling   FRA     1
## 2  1968    alpineskiing   FRA     8
## 3  1992 freestyleskiing   FRA     5
## 4  2010        biathlon   FRA     6

donnees%>%group_by(year,sport,code)%>%summarise(N=n())%>%arrange(-N)%>%slice(1:3)%>%filter(code=='FRA')

## Source: local data frame [22 x 4]
## Groups: year, sport [22]
## 
##     year         sport  code     N
##    <int>         <chr> <chr> <int>
## 1   1924      biathlon   FRA     1
## 2   1924       curling   FRA     1
## 3   1924 figureskating   FRA     1
## 4   1928 figureskating   FRA     1
## 5   1936  alpineskiing   FRA     1
## 6   1948  alpineskiing   FRA     5
## 7   1952 figureskating   FRA     1
## 8   1960  alpineskiing   FRA     3
## 9   1964  alpineskiing   FRA     6
## 10  1968  alpineskiing   FRA     8
## # ... with 12 more rows
